<svg xmlns="http://www.w3.org/2000/svg" width="42.726" height="68.362" viewBox="0 0 42.726 68.362">
  <path id="Icon_metro-location" data-name="Icon metro-location" d="M29.718,1.928A21.363,21.363,0,0,0,8.355,23.291c0,21.363,21.363,47,21.363,47s21.363-25.636,21.363-47A21.363,21.363,0,0,0,29.718,1.928Zm0,34.448A13.085,13.085,0,1,1,42.8,23.291,13.085,13.085,0,0,1,29.718,36.376ZM21.44,23.291a8.278,8.278,0,1,1,8.278,8.278A8.278,8.278,0,0,1,21.44,23.291Z" transform="translate(-8.355 -1.928)" fill="#f7c00c"/>
</svg>
